<?xml version="1.0" encoding="utf-8"?>
<!-- Generator: Adobe Illustrator 22.0.0, SVG Export Plug-In . SVG Version: 6.00 Build 0)  -->
<svg version="1.1" id="Capa_1" xmlns="http://www.w3.org/2000/svg" xmlns:xlink="http://www.w3.org/1999/xlink" x="0px" y="0px"
	 viewBox="0 0 200 200" enable-background="new 0 0 200 200" xml:space="preserve">
<g>
	<g id="g14">
		<g id="g20" transform="translate(172.0199,86.0099)">
			<path fill="#231F20" d="M-72-86c-55.2,0-100,44.8-100,100s44.8,100,100,100S28,69.2,28,14S-16.8-86-72-86z M-72.2,27.9
				c-8.2,0-14.3-6.7-14.7-14.7c-0.4-7.9,7-14.7,14.7-14.7c8.2,0,14.3,6.7,14.7,14.7C-57.2,21.1-64.5,27.9-72.2,27.9z"/>
		</g>
		<g id="g24" transform="translate(150.1937,36.812)">
			<path id="path26" fill="#FFFFFF" d="M24.4,120.4c-17.2,22.4-44.2,36.8-74.6,36.8s-57.4-14.4-74.6-36.8
				c-12.2-15.8-19.4-35.7-19.4-57.2c0-51.9,42.1-94,94-94c51.9,0,94.1,42.1,94.1,94C43.9,84.7,36.6,104.6,24.4,120.4L24.4,120.4z
				 M-50.2-35.2c-54.3,0-98.4,44-98.4,98.4s44,98.4,98.4,98.4c54.3,0,98.4-44,98.4-98.4S4.1-35.2-50.2-35.2"/>
		</g>
		<g id="g32" transform="translate(86.0001,59.9826)">
			<path id="path34" fill="#6E6F71" d="M14,70.3c-16.7,0-30.2-13.6-30.2-30.3S-2.7,9.7,14,9.7S44.3,23.3,44.3,40S30.7,70.3,14,70.3
				 M-60.6,97.2H88.6C100.8,81.4,108,61.5,108,40c0-51.9-42.1-94-94.1-94c-51.9,0-94,42.1-94,94C-80,61.5-72.8,81.4-60.6,97.2"/>
		</g>
		<g id="g36" transform="translate(86.0001,61.9003)">
			<path id="path38" fill="#1F70C1" d="M14,66.1c-15.5,0-28-12.6-28-28s12.6-28,28-28s28.1,12.5,28.1,28S29.5,66.1,14,66.1 M14,7.8
				c-16.7,0-30.2,13.6-30.2,30.3c0,16.7,13.5,30.3,30.2,30.3s30.3-13.6,30.3-30.3C44.3,21.4,30.7,7.8,14,7.8"/>
		</g>
		<g id="g40" transform="translate(86.0001,63.4424)">
			<path id="path42" fill="#918F90" d="M14,62.8c-14.5,0-26.2-11.8-26.2-26.2c0-14.5,11.7-26.2,26.2-26.2
				c14.5,0,26.2,11.7,26.2,26.2C40.2,51,28.5,62.8,14,62.8 M14,8.5c-15.5,0-28,12.6-28,28s12.6,28,28,28s28.1-12.5,28.1-28
				S29.5,8.5,14,8.5"/>
		</g>
		<g id="g44" transform="translate(86.0001,74.1182)">
			<path fill="#4F4C4D" d="M14-0.4c-14.5,0-26.2,11.7-26.2,26.2c0,14.5,11.7,26.3,26.2,26.3c14.5,0,26.2-11.8,26.2-26.3
				C40.2,11.4,28.5-0.4,14-0.4z M15.9,39.6c-0.7,0.1-1.4,0.2-2.1,0.2C5.6,39.7-0.5,33-0.8,25.1c-0.2-4.4,2-8.4,5.2-11.1
				c2.6-2.2,5.9-3.6,9.6-3.6c8.1,0,14.7,6.6,14.7,14.7C28.7,32.5,23.1,38.6,15.9,39.6z"/>
		</g>
		<g id="g48" transform="translate(86.0001,74.1182)">
			<path fill="none" stroke="#353132" stroke-width="1.8389" stroke-miterlimit="10" d="M14-0.4c-14.5,0-26.2,11.7-26.2,26.2
				c0,14.5,11.7,26.3,26.2,26.3c14.5,0,26.2-11.8,26.2-26.3C40.2,11.4,28.5-0.4,14-0.4z M15.9,39.6c-0.7,0.1-1.4,0.2-2.1,0.2
				C5.6,39.7-0.5,33-0.8,25.1c-0.2-4.4,2-8.4,5.2-11.1c2.6-2.2,5.9-3.6,9.6-3.6c8.1,0,14.7,6.6,14.7,14.7
				C28.7,32.5,23.1,38.6,15.9,39.6z"/>
		</g>
		<g id="g52" transform="translate(120.2069,46.6753)">
		</g>
		<g id="g56" transform="translate(96.6313,34.6915)">
		</g>
		<g id="g60" transform="translate(57.4432,34.3568)">
		</g>
		<g id="g64" transform="translate(66.1619,36.1176)">
		</g>
		<g id="g68" transform="translate(73.8872,33.7205)">
		</g>
		<g id="g72" transform="translate(95.358,34.037)">
		</g>
		<g id="g76" transform="translate(84.9848,36.4939)">
		</g>
		<g id="g80" transform="translate(110.4707,40.2041)">
		</g>
		<g id="g84" transform="translate(103.1266,48.8373)">
		</g>
	</g>
	<path id="path4059" inkscape:connector-curvature="0" fill="#1F70C1" d="M69.6,160.4v1.7h11.8v-1.7H69.6z M83.1,160.4v1.7H100
		c0,0-1.7-1.7-4-1.7H83.1z M103.3,160.4v1.7h10.2l-0.6-1.7H103.3z M120.8,160.4l-0.6,1.7h10.1v-1.7H120.8L120.8,160.4z M69.6,163.7
		v1.7h11.8v-1.7H69.6z M83.1,163.7v1.7h18.8c0,0-0.2-1.3-0.6-1.7H83.1z M103.3,163.7v1.7h11.3l-0.6-1.7L103.3,163.7L103.3,163.7z
		 M119.6,163.7l-0.6,1.7h11.3v-1.7L119.6,163.7L119.6,163.7z M73,166.9v1.7h5.1v-1.7H73z M86.5,166.9v1.7h5.1v-1.7H86.5z
		 M96.6,166.9v1.7h5.1c0,0,0.3-0.9,0.3-1.7H96.6z M106.7,166.9v1.7h9.1l-0.6-1.7H106.7z M118.5,166.9l-0.6,1.7h9.1v-1.7H118.5z
		 M73,170.1v1.7h5.1v-1.7H73z M86.5,170.1v1.7h13.1c0,0,1.1-0.9,1.4-1.7H86.5L86.5,170.1z M106.7,170.1v1.7h5.1v-0.9l0.3,0.9h9.4
		l0.3-0.9v0.9h5.1v-1.7h-9.6l-0.5,1.4l-0.5-1.4L106.7,170.1L106.7,170.1z M73,173.4v1.7h5.1v-1.7H73z M86.5,173.4v1.7H101
		c-0.3-0.8-1.4-1.7-1.4-1.7H86.5L86.5,173.4z M106.7,173.4v1.7h5.1v-1.7H106.7z M112.7,173.4l0.6,1.7h7l0.6-1.7H112.7z M121.9,173.4
		v1.7h5.1v-1.7H121.9z M73,176.6v1.7h5.1v-1.7H73z M86.5,176.6v1.7h5.1v-1.7H86.5z M96.6,176.6v1.7h5.5c0-0.8-0.3-1.7-0.3-1.7H96.6z
		 M106.7,176.6v1.7h5.1v-1.7H106.7z M113.9,176.6l0.6,1.7h4.7l0.6-1.7H113.9z M121.9,176.6v1.7h5.1v-1.7H121.9z M69.6,179.9v1.7
		h11.8v-1.7H69.6L69.6,179.9z M83.1,179.9v1.7h18.2c0.4-0.4,0.6-1.7,0.6-1.7H83.1L83.1,179.9z M103.4,179.9v1.7h8.4v-1.7H103.4z
		 M115.1,179.9l0.6,1.7h2.4l0.6-1.7H115.1z M121.9,179.9v1.7h8.5v-1.7H121.9z M69.6,183.1v1.7h11.8v-1.7H69.6L69.6,183.1z
		 M83.1,183.1v1.7H96c2.3,0,4-1.7,4-1.7H83.1L83.1,183.1z M103.4,183.1v1.7h8.4v-1.7H103.4z M116.3,183.1l0.6,1.7l0.1,0l0.6-1.7
		L116.3,183.1L116.3,183.1L116.3,183.1z M121.9,183.1v1.7h8.5v-1.7H121.9L121.9,183.1z"/>
</g>
</svg>
